<svg width="25" height="25" viewBox="0 -3 25 25" fill="none" xmlns="http://www.w3.org/2000/svg">
  <rect x="10" y="5" width="10" height="10" fill="#fff" />
  <path d="M24.4771 3.44374C24.3358 2.91174 24.0573 2.42618 23.6694 2.03569C23.2815 1.64519 22.7977 1.36348 22.2667 1.21875C20.3177 0.692703 12.5 0.692703 12.5 0.692703C12.5 0.692703 4.68229 0.692703 2.73229 1.21875C2.20147 1.36373 1.71801 1.64555 1.33029 2.03602C0.942564 2.42649 0.664158 2.91191 0.522917 3.44374C0 5.40625 0 9.5 0 9.5C0 9.5 0 13.5937 0.522917 15.5562C0.664152 16.0883 0.942683 16.5738 1.33062 16.9643C1.71855 17.3548 2.20227 17.6365 2.73333 17.7812C4.68229 18.3073 12.5 18.3073 12.5 18.3073C12.5 18.3073 20.3177 18.3073 22.2677 17.7812C22.7988 17.6366 23.2826 17.3549 23.6705 16.9644C24.0585 16.5739 24.337 16.0883 24.4781 15.5562C25 13.5937 25 9.5 25 9.5C25 9.5 25 5.40625 24.4771 3.44374ZM9.94271 13.2167V5.78333L16.4771 9.5L9.94271 13.2167Z" fill="#FF0000" />
</svg>
  