<svg width="25" height="25" viewBox="-0.5 -5.5 25 25" fill="none" xmlns="http://www.w3.org/2000/svg">
  <path d="M17.3 1.30001C16.91 0.910011 16.28 0.910011 15.89 1.30001L10.25 6.94001L11.66 8.35001L17.3 2.70001C17.68 2.32001 17.68 1.68001 17.3 1.30001ZM21.54 1.29001L11.66 11.17L8.18002 7.70001C7.79002 7.31001 7.16001 7.31001 6.77001 7.70001C6.38001 8.09001 6.38001 8.72001 6.77001 9.11001L10.95 13.29C11.34 13.68 11.97 13.68 12.36 13.29L22.95 2.71001C23.34 2.32001 23.34 1.69001 22.95 1.30001H22.94C22.56 0.900011 21.93 0.900011 21.54 1.29001ZM1.12001 9.12001L5.30001 13.3C5.69001 13.69 6.32001 13.69 6.71001 13.3L7.41001 12.6L2.53001 7.70001C2.14001 7.31001 1.51001 7.31001 1.12001 7.70001C0.730015 8.09001 0.730015 8.73001 1.12001 9.12001Z" fill="#000" />
</svg>
  