<svg width="25" height="25" viewBox="-7.5 -7.5 55 55" fill="none" xmlns="http://www.w3.org/2000/svg">
  <circle cx="20" cy="20" r="27.5" fill="#000" />
  <path d="M24.1827 14.4207L21.7327 6.35401C21.2493 4.77068 19.016 4.77068 18.5493 6.35401L16.0827 14.4207H8.666C7.04933 14.4207 6.38266 16.504 7.69933 17.4373L13.766 21.7707L11.3827 29.454C10.8993 31.004 12.6993 32.254 13.9827 31.2707L20.1327 26.604L26.2827 31.2873C27.566 32.2707 29.366 31.0207 28.8827 29.4707L26.4993 21.7873L32.566 17.454C33.8827 16.504 33.216 14.4373 31.5993 14.4373H24.1827V14.4207Z" fill="#f00" />
</svg>